{
  "images" : [
    {
      "filename" : "png-transparent-american-broadcasting-company-abc-news-logo-good-morning-television-text-logo-thumbnail.png",
      "idiom" : "universal",
      "scale" : "1x"
    },
    {
      "idiom" : "universal",
      "scale" : "2x"
    },
    {
      "idiom" : "universal",
      "scale" : "3x"
    }
  ],
  "info" : {
    "author" : "xcode",
    "version" : 1
  }
}
